INDEX VERSION 1.4+/home/pkay/grid_computing-workspace/.metadata/.plugins/org.eclipse.wst.jsdt.core/indexes
1712395687.index
1722473333.index
1684597183.index
732718538.index
2378823910.index
1126250322.index
4215911169.index
59675741.index
314619299.index
1894681566.index
